{
  "uikit": {
    "table": {
      "title": "UI Kit table",
      "title-alt": "Minta táblázat SwaggerClient-ből generálva",
      "newEntryButton": "Új sor",
      "headers": {
        "firstname": "Vezetéknév",
        "lastname": "Keresztnév",
        "email": "E-mail cím",
        "testModelProperty": "Teszt mező"
      }
    }
  }
}
